Greater than federal MW,Equals federal MW of $7.25,No MW Required
AK $10.85,CNMI,AL
AR $11.00,GA,LA
AZ $13.85,IA,MS
CA $15.50,ID,SC
CO $13.65,IN,TN
CT $14.00,KS,
DC $16.50,KY,
DE $11.75,NC,
FL $11.00,ND,
HI $12.00,NH,
IL $13.00,OK,
MA $15.00,PA,
MD $13.25,TX,
ME $13.80,UT,
MI $10.10,WI,
MN $10.59,WY,
MO $12.00,,
MT $9.95,,
NE $10.50,,
NJ $14.13,,
NM $12.00,,
NV $10.50/9.50,,
NY $14.20,,
OH $10.10,,
OR $13.50,,
PR $8.50,,
RI $13.00,,
SD $10.80,,
VA $12.00,,
VT $13.18,,
WA $15.74,,
WV $8.75,,
VI $10.50,,
GU $9.25,,
