variable_name,variable_description
Health literacy estimate,Health literacy estimate
ADI_NATRANK,National ADI percentile
ADI_STATERNK,State ADI percentile
D_LDPNT_2,EJ Index for % pre-1960 housing (lead paint indicator)
D_DSLPM_2,EJ Index for Diesel particulate matter level in air
D_CANCR_2,EJ Index for Air toxics cancer risk
D_RESP_2,EJ Index for Air toxics respiratory hazard index
D_PTRAF_2,EJ Index for Traffic proximity and volume
D_PWDIS_2,EJ Index for Indicator for major direct dischargers to water
D_PNPL_2,EJ Index for Proximity to National Priorities List (NPL) sites
D_PRMP_2,EJ Index for Proximity to Risk Management Plan (RMP) facilities
D_PTSDF_2,EJ Index for Proximity to Treatment Storage and Disposal (TSDF) facilities
D_OZONE_2,EJ Index for Ozone level in air
D_PM25_2,EJ Index for PM2.5 level in air
B27010_001,"Health insurance, total civilian non-institutionalized population"
B27010_017,"Health insurance, no health insurance coverage, under 19 years"
B27010_033,"Health insurance, no health insurance coverage, 19 to 34 years"
B27010_050,"Health insurance, no health insurance coverage, 35 to 64 years"
B27010_066,"Health insurance, no health insurance coverage, 65 years and older"
B15002_001,"Education attainment, total population 25 years and over"
B15002_011,"Education attainment, high school, 25 years and over, male"
B15002_028,"Education attainment, high school, 25 years and over, female"
B15002_015,"Education attainment, bachelor's degree, 25 years and over, male"
B15002_032,"Education attainment, bachelor's degree, 25 years and over, female"
B19001_001,"Household income, total households"
B19001_002,"Household income, households less than $10,000"
B19001_003,"Household income, households $10,000 to $14,999"
B19001_004,"Household income, households $15,000 to $19,999"
B19001_015,"Household income, households $125,000 to $149,999"
B19001_016,"Household income, households $150,000 to $199,999"
B19001_017,"Household income, households $200,000 or more"
B28011_001,"Internet subscriptions in household, total households"
B28011_004,"Internet subscriptions in household, households with broadband such as cable, fiber optic, or DSL"
