"Easy Access to State and County Juvenile Court Case Counts"

"Counties in state: 105"

,"2018 Population Estimates",,,"Delinquency",,"Status",,"Dependency",,
"Reporting Counties","Total","10 Through Upper Age","0 Through Upper Age","Petition","Non-petition","Petition","Non-petition","Petition","Non-petition","All Reported Cases"
"Allen","12,400","1,400","2,800","56","--","--","--","--","--","--"
"Anderson","7,900","900","2,000","20","--","--","--","--","--","--"
"Atchison","16,200","1,800","3,800","89","--","--","--","--","--","--"
"Barber","4,500","400","1,000","8","--","--","--","--","--","--"
"Barton","26,100","2,800","6,200","91","--","--","--","--","--","--"
"Bourbon","14,700","1,700","3,800","17","--","--","--","--","--","--"
"Brown","9,600","1,100","2,400","33","--","--","--","--","--","--"
"Butler","66,800","8,400","17,000","92","--","--","--","--","--","--"
"Chase","2,600","200","500","0","--","--","--","--","--","--"
"Chautauqua","3,300","300","700","*","--","--","--","--","--","--"
"Cherokee","20,000","2,200","4,600","25","--","--","--","--","--","--"
"Cheyenne","2,700","200","600","*","--","--","--","--","--","--"
"Clark","2,000","200","500","*","--","--","--","--","--","--"
"Clay","8,000","900","1,900","31","--","--","--","--","--","--"
"Cloud","8,700","800","2,000","33","--","--","--","--","--","--"
"Coffey","8,200","800","1,800","12","--","--","--","--","--","--"
"Comanche","1,700","200","400","0","--","--","--","--","--","--"
"Cowley","35,200","3,800","8,300","42","--","--","--","--","--","--"
"Crawford","39,000","3,800","8,500","87","--","--","--","--","--","--"
"Decatur","2,900","200","600","0","--","--","--","--","--","--"
"Dickinson","18,700","2,100","4,400","96","--","--","--","--","--","--"
"Doniphan","7,700","700","1,600","6","--","--","--","--","--","--"
"Douglas","121,400","9,900","22,100","165","--","--","--","--","--","--"
"Edwards","2,800","300","700","*","--","--","--","--","--","--"
"Elk","2,500","200","500","*","--","--","--","--","--","--"
"Ellis","28,700","2,700","6,200","51","--","--","--","--","--","--"
"Ellsworth","6,200","500","1,100","6","--","--","--","--","--","--"
"Finney","36,600","4,800","11,000","93","--","--","--","--","--","--"
"Ford","33,900","4,300","10,200","80","--","--","--","--","--","--"
"Franklin","25,600","2,900","6,100","87","--","--","--","--","--","--"
"Geary","32,600","3,200","10,000","186","--","--","--","--","--","--"
"Gove","2,600","300","600","0","--","--","--","--","--","--"
"Graham","2,500","200","500","5","--","--","--","--","--","--"
"Grant","7,300","1,000","2,300","18","--","--","--","--","--","--"
"Gray","6,000","800","1,700","7","--","--","--","--","--","--"
"Greeley","1,200","100","300","*","--","--","--","--","--","--"
"Greenwood","6,100","600","1,300","10","--","--","--","--","--","--"
"Hamilton","2,600","300","700","*","--","--","--","--","--","--"
"Harper","5,500","600","1,400","10","--","--","--","--","--","--"
"Harvey","34,200","3,900","8,200","117","--","--","--","--","--","--"
"Haskell","4,000","500","1,100","9","--","--","--","--","--","--"
"Hodgeman","1,800","200","400","*","--","--","--","--","--","--"
"Jackson","13,300","1,600","3,300","23","--","--","--","--","--","--"
"Jefferson","19,000","2,100","4,300","23","--","--","--","--","--","--"
"Jewell","2,800","200","500","9","--","--","--","--","--","--"
"Johnson","597,600","67,500","145,600","1,716","--","--","--","--","--","--"
"Kearny","3,900","500","1,100","5","--","--","--","--","--","--"
"Kingman","7,300","800","1,600","8","--","--","--","--","--","--"
"Kiowa","2,500","200","600","7","--","--","--","--","--","--"
"Labette","20,000","2,100","4,800","40","--","--","--","--","--","--"
"Lane","1,600","200","300","*","--","--","--","--","--","--"
"Leavenworth","81,400","8,500","19,300","202","--","--","--","--","--","--"
"Lincoln","3,000","300","700","*","--","--","--","--","--","--"
"Linn","9,800","1,100","2,200","11","--","--","--","--","--","--"
"Logan","2,800","300","700","*","--","--","--","--","--","--"
"Lyon","33,400","3,400","7,400","78","--","--","--","--","--","--"
"McPherson","28,500","3,100","6,500","29","--","--","--","--","--","--"
"Marion","12,000","1,200","2,500","26","--","--","--","--","--","--"
"Marshall","9,700","1,100","2,300","62","--","--","--","--","--","--"
"Meade","4,100","500","1,100","9","--","--","--","--","--","--"
"Miami","33,700","4,000","8,300","15","--","--","--","--","--","--"
"Mitchell","6,200","600","1,400","13","--","--","--","--","--","--"
"Montgomery","32,100","3,500","7,600","105","--","--","--","--","--","--"
"Morris","5,500","500","1,100","8","--","--","--","--","--","--"
"Morton","2,700","300","600","10","--","--","--","--","--","--"
"Nemaha","10,200","1,100","2,600","16","--","--","--","--","--","--"
"Neosho","16,000","1,800","3,900","91","--","--","--","--","--","--"
"Ness","2,800","300","600","*","--","--","--","--","--","--"
"Norton","5,400","500","1,000","8","--","--","--","--","--","--"
"Osage","15,900","1,800","3,700","8","--","--","--","--","--","--"
"Osborne","3,500","300","700","*","--","--","--","--","--","--"
"Ottawa","5,800","700","1,300","7","--","--","--","--","--","--"
"Pawnee","6,600","500","1,100","28","--","--","--","--","--","--"
"Phillips","5,300","600","1,200","7","--","--","--","--","--","--"
"Pottawatomie","24,300","3,200","7,100","38","--","--","--","--","--","--"
"Pratt","9,400","1,000","2,300","19","--","--","--","--","--","--"
"Rawlins","2,500","200","500","10","--","--","--","--","--","--"
"Reno","62,300","6,700","14,000","189","--","--","--","--","--","--"
"Republic","4,700","400","1,000","8","--","--","--","--","--","--"
"Rice","9,500","1,000","2,200","17","--","--","--","--","--","--"
"Riley","73,700","4,700","12,300","79","--","--","--","--","--","--"
"Rooks","5,000","500","1,100","*","--","--","--","--","--","--"
"Rush","3,100","300","600","19","--","--","--","--","--","--"
"Russell","6,900","600","1,500","16","--","--","--","--","--","--"
"Saline","54,400","5,800","12,600","276","--","--","--","--","--","--"
"Scott","4,900","600","1,300","6","--","--","--","--","--","--"
"Sedgwick","513,600","58,700","131,900","902","--","--","--","--","--","--"
"Seward","21,800","2,900","6,900","87","--","--","--","--","--","--"
"Shawnee","177,500","19,200","42,000","309","--","--","--","--","--","--"
"Sheridan","2,500","300","600","0","--","--","--","--","--","--"
"Sherman","5,900","600","1,400","22","--","--","--","--","--","--"
"Smith","3,600","300","700","*","--","--","--","--","--","--"
"Stafford","4,200","400","1,000","14","--","--","--","--","--","--"
"Stanton","2,000","200","500","*","--","--","--","--","--","--"
"Stevens","5,600","800","1,600","*","--","--","--","--","--","--"
"Sumner","23,000","2,700","5,700","52","--","--","--","--","--","--"
"Thomas","7,700","700","1,800","11","--","--","--","--","--","--"
"Trego","2,800","200","500","9","--","--","--","--","--","--"
"Wabaunsee","6,900","800","1,600","5","--","--","--","--","--","--"
"Wallace","1,500","200","400","0","--","--","--","--","--","--"
"Washington","5,400","500","1,200","10","--","--","--","--","--","--"
"Wichita","2,100","200","500","0","--","--","--","--","--","--"
"Wilson","8,700","1,000","2,100","20","--","--","--","--","--","--"
"Woodson","3,200","300","700","5","--","--","--","--","--","--"
"Wyandotte","165,300","19,800","46,100","432","--","--","--","--","--","--"

"Number of Reported Cases",,,,"6,747","--","--","--","--","--","--"
"Population Represented","2,911,500","319,000","706,000","319,000","--","--","--","--","--","--"
"Rates for Reporting Counties",,,,"21.15","--","--","--","--","--","--"
"Number of Reporting Counties",,,,"105","--","--","--","--","--","--"

"*Denotes case counts greater than zero and less than five."

"--","Data are either not available or are not reliable for publication."
"Source: Supreme Court of Kansas, Office of Judicial Administration"
"Mode: Annual Report of the Courts of Kansas"
"1. Delinquency figures are juvenile offender filings disposed for fiscal year 2018."

"Suggested citation:Hockenberry, S., Smith, J., and Kang, W. (2021)."
"Easy Access to State and County Juvenile Court Case Counts, 2019. Online. Available: https://www.ojjdp.gov/ojstatbb/ezaco/."
