"Easy Access to State and County Juvenile Court Case Counts"

"Counties in state: 53"

,"2015 Population Estimates",,,"Delinquency",,"Status",,"Dependency",,
"Reporting Counties","Total","10 Through Upper Age","0 Through Upper Age","Petition","Non-petition","Petition","Non-petition","Petition","Non-petition","All Reported Cases"
"Adams","2,400","200","500","--","--","--","--","--","--","12"
"Barnes","11,000","1,000","2,300","--","--","--","--","--","--","52"
"Benson","6,800","1,000","2,300","--","--","--","--","--","--","9"
"Billings","900","100","200","--","--","--","--","--","--","*"
"Bottineau","6,700","600","1,400","--","--","--","--","--","--","12"
"Bowman","3,300","300","800","--","--","--","--","--","--","14"
"Burke","2,300","200","600","--","--","--","--","--","--","*"
"Burleigh","93,100","8,700","21,300","--","--","--","--","--","--","583"
"Cass","171,500","14,800","38,100","--","--","--","--","--","--","793"
"Cavalier","3,800","300","800","--","--","--","--","--","--","13"
"Dickey","5,100","500","1,200","--","--","--","--","--","--","16"
"Divide","2,400","200","500","--","--","--","--","--","--","19"
"Dunn","4,600","400","1,100","--","--","--","--","--","--","14"
"Eddy","2,400","200","500","--","--","--","--","--","--","14"
"Emmons","3,400","300","700","--","--","--","--","--","--","7"
"Foster","3,300","300","700","--","--","--","--","--","--","9"
"Golden Valley","1,800","200","500","--","--","--","--","--","--","10"
"Grand Forks","70,700","5,400","14,400","--","--","--","--","--","--","369"
"Grant","2,400","200","500","--","--","--","--","--","--","15"
"Griggs","2,300","200","400","--","--","--","--","--","--","5"
"Hettinger","2,700","300","600","--","--","--","--","--","--","13"
"Kidder","2,400","200","500","--","--","--","--","--","--","6"
"La Moure","4,100","400","900","--","--","--","--","--","--","13"
"Logan","1,900","200","400","--","--","--","--","--","--","9"
"McHenry","6,000","600","1,400","--","--","--","--","--","--","8"
"McIntosh","2,800","200","500","--","--","--","--","--","--","0"
"McKenzie","12,800","1,600","3,800","--","--","--","--","--","--","55"
"McLean","9,700","900","2,100","--","--","--","--","--","--","29"
"Mercer","8,800","900","2,000","--","--","--","--","--","--","47"
"Morton","30,400","2,800","7,000","--","--","--","--","--","--","162"
"Mountrail","10,300","1,100","2,600","--","--","--","--","--","--","14"
"Nelson","3,000","300","500","--","--","--","--","--","--","10"
"Oliver","1,800","200","400","--","--","--","--","--","--","*"
"Pembina","7,100","700","1,500","--","--","--","--","--","--","25"
"Pierce","4,300","400","900","--","--","--","--","--","--","12"
"Ramsey","11,600","1,100","2,700","--","--","--","--","--","--","126"
"Ransom","5,500","600","1,200","--","--","--","--","--","--","17"
"Renville","2,600","300","600","--","--","--","--","--","--","6"
"Richland","16,400","1,600","3,500","--","--","--","--","--","--","75"
"Rolette","14,700","2,000","4,900","--","--","--","--","--","--","34"
"Sargent","3,900","400","800","--","--","--","--","--","--","12"
"Sheridan","1,300","100","200","--","--","--","--","--","--","*"
"Sioux","4,400","700","1,600","--","--","--","--","--","--","*"
"Slope","800","100","200","--","--","--","--","--","--","0"
"Stark","32,100","3,100","8,100","--","--","--","--","--","--","158"
"Steele","2,000","200","400","--","--","--","--","--","--","*"
"Stutsman","21,100","1,900","4,300","--","--","--","--","--","--","127"
"Towner","2,300","200","500","--","--","--","--","--","--","7"
"Traill","8,000","800","1,800","--","--","--","--","--","--","10"
"Walsh","10,900","1,100","2,500","--","--","--","--","--","--","64"
"Ward","71,400","6,300","16,700","--","--","--","--","--","--","346"
"Wells","4,200","400","800","--","--","--","--","--","--","5"
"Williams","35,400","3,500","9,400","--","--","--","--","--","--","180"

"Number of Reported Cases",,,,"--","--","--","--","--","--","3,546"
"Population Represented","756,800","70,300","174,400","--","--","--","--","--","--","70,300"
"Rates for Reporting Counties",,,,"--","--","--","--","--","--","--"
"Number of Reporting Counties",,,,"--","--","--","--","--","--","53"

"*Denotes case counts greater than zero and less than five."

"--","Data are either not available or are not reliable for publication."
"Source: North Dakota Supreme Court, State Court Administrator's Office"
"Mode: North Dakota Kids Count Data Center Tables"
"1. Total figures are court referrals for 2015."

"Suggested citation:Hockenberry, S., Smith, J., and Kang, W. (2021)."
"Easy Access to State and County Juvenile Court Case Counts, 2019. Online. Available: https://www.ojjdp.gov/ojstatbb/ezaco/."
