"Easy Access to State and County Juvenile Court Case Counts"

"Counties in state: 17"

,"2014 Population Estimates",,,"Delinquency",,"Status",,"Dependency",,
"Reporting Counties","Total","10 Through Upper Age","0 Through Upper Age","Petition","Non-petition","Petition","Non-petition","Petition","Non-petition","All Reported Cases"
"Churchill","24,000","2,500","5,600","--","--","--","--","--","--","--"
"Clark","2,069,100","218,900","491,800","2,521","4,267","--","--","--","--","--"
"Douglas","47,500","4,400","8,600","46","117","18","176","--","--","--"
"Elko","52,700","6,500","14,700","113","--","47","--","--","--","--"
"Esmeralda","800","100","200","0","0","0","0","--","--","--"
"Eureka","2,000","200","400","7","*","0","*","--","--","--"
"Humboldt","17,200","2,000","4,700","92","37","0","*","--","--","--"
"Lander","6,000","700","1,600","33","6","0","27","--","--","--"
"Lincoln","5,100","600","1,100","*","0","*","0","--","--","--"
"Lyon","51,800","5,500","11,600","173","93","62","59","--","--","--"
"Mineral","4,500","400","900","--","--","--","--","--","--","--"
"Nye","42,200","3,800","7,600","--","--","--","--","--","--","--"
"Pershing","6,700","600","1,200","20","*","5","19","--","--","--"
"Storey","3,900","300","500","7","10","0","0","--","--","--"
"Washoe","440,200","44,100","98,900","760","1,652","27","748","--","--","--"
"White Pine","10,000","900","2,100","--","--","--","--","--","--","--"
"Carson City","54,500","5,100","11,100","--","--","--","--","--","--","--"

"Number of Reported Cases",,,,"3,775","6,190","160","1,031","--","--","--"
"Population Represented","2,838,300","296,500","662,700","283,800","277,300","65,000","58,400","--","--","--"
"Rates for Reporting Counties",,,,"13.30","22.32","2.46","17.64","--","--","--"
"Number of Reporting Counties",,,,"12","11","11","10","--","--","--"

"*Denotes case counts greater than zero and less than five."

"--","Data are either not available or are not reliable for publication."
"Source: Division of Child and Family Services, Juvenile Justice Programs Office"
"Mode: Automated data file"
"1. Delinquency figures are cases disposed."
"2. Status figures are cases disposed."

"Suggested citation:Hockenberry, S., Smith, J., and Kang, W. (2021)."
"Easy Access to State and County Juvenile Court Case Counts, 2019. Online. Available: https://www.ojjdp.gov/ojstatbb/ezaco/."
