"Easy Access to State and County Juvenile Court Case Counts"

"Counties in state: 62"

,"2019 Population Estimates",,,"Delinquency",,"Status",,"Dependency",,
"Reporting Counties","Total","10 Through Upper Age","0 Through Upper Age","Petition","Non-petition","Petition","Non-petition","Petition","Non-petition","All Reported Cases"
"Albany","305,500","18,300","49,100","137","230","116","--","--","--","--"
"Allegany","46,100","3,200","8,100","27","25","13","--","--","--","--"
"Bronx","1,418,200","111,100","311,000","366","0","166","--","--","--","--"
"Broome","190,500","12,400","32,500","155","63","16","--","--","--","--"
"Cattaraugus","76,100","5,900","14,600","59","8","7","--","--","--","--"
"Cayuga","76,600","5,200","13,100","44","14","10","--","--","--","--"
"Chautauqua","126,900","8,700","22,600","97","104","10","--","--","--","--"
"Chemung","83,500","6,100","15,600","76","55","10","--","--","--","--"
"Chenango","47,200","3,300","8,500","11","18","*","--","--","--","--"
"Clinton","80,500","4,900","12,800","6","32","*","--","--","--","--"
"Columbia","59,500","3,600","8,700","*","11","*","--","--","--","--"
"Cortland","47,600","3,200","8,000","24","25","14","--","--","--","--"
"Delaware","44,100","2,600","6,200","8","17","*","--","--","--","--"
"Dutchess","294,200","19,300","47,500","59","37","33","--","--","--","--"
"Erie","918,700","61,800","163,100","442","313","70","--","--","--","--"
"Essex","36,900","2,100","5,100","11","9","7","--","--","--","--"
"Franklin","50,000","3,400","8,500","10","44","8","--","--","--","--"
"Fulton","53,400","3,800","9,400","11","36","9","--","--","--","--"
"Genesee","57,300","4,100","10,200","17","9","9","--","--","--","--"
"Greene","47,200","2,600","6,700","12","21","16","--","--","--","--"
"Hamilton","4,400","200","500","0","*","0","--","--","--","--"
"Herkimer","61,300","4,500","11,000","16","34","7","--","--","--","--"
"Jefferson","109,800","7,900","23,900","40","28","5","--","--","--","--"
"Kings","2,559,900","176,600","523,800","411","0","87","--","--","--","--"
"Lewis","26,300","2,000","5,300","8","8","*","--","--","--","--"
"Livingston","62,900","4,000","9,700","25","18","6","--","--","--","--"
"Madison","70,900","4,700","11,800","25","41","11","--","--","--","--"
"Monroe","741,800","52,000","134,800","123","218","106","--","--","--","--"
"Montgomery","49,200","3,800","10,000","16","21","13","--","--","--","--"
"Nassau","1,356,900","101,500","255,800","235","284","40","--","--","--","--"
"New York","1,628,700","69,100","209,900","233","1,403","37","--","--","--","--"
"Niagara","209,300","14,200","36,700","50","169","15","--","--","--","--"
"Oneida","228,700","16,400","43,100","108","222","92","--","--","--","--"
"Onondaga","460,500","32,500","85,600","454","191","*","--","--","--","--"
"Ontario","109,800","7,700","19,100","29","46","24","--","--","--","--"
"Orange","384,900","33,900","86,400","104","81","24","--","--","--","--"
"Orleans","40,400","2,700","6,800","11","36","7","--","--","--","--"
"Oswego","117,100","8,500","21,600","38","51","22","--","--","--","--"
"Otsego","59,500","3,100","8,100","9","14","9","--","--","--","--"
"Putnam","98,300","7,000","16,500","7","17","12","--","--","--","--"
"Queens","2,253,900","140,100","404,400","209","0","83","--","--","--","--"
"Rensselaer","158,700","10,400","27,000","67","28","61","--","--","--","--"
"Richmond","476,100","35,600","91,300","56","0","22","--","--","--","--"
"Rockland","325,800","30,800","82,400","29","57","14","--","--","--","--"
"St. Lawrence","107,700","7,600","19,000","10","68","25","--","--","--","--"
"Saratoga","229,900","15,700","39,600","46","57","12","--","--","--","--"
"Schenectady","155,300","11,200","29,700","48","77","36","--","--","--","--"
"Schoharie","31,000","1,900","4,700","*","10","20","--","--","--","--"
"Schuyler","17,800","1,200","2,900","11","7","*","--","--","--","--"
"Seneca","34,000","2,400","5,900","18","20","*","--","--","--","--"
"Steuben","95,400","7,000","17,800","28","22","12","--","--","--","--"
"Suffolk","1,476,600","108,300","270,000","223","126","80","--","--","--","--"
"Sullivan","75,400","5,400","14,000","20","25","12","--","--","--","--"
"Tioga","48,200","3,600","8,700","24","9","8","--","--","--","--"
"Tompkins","102,200","5,000","13,100","40","27","21","--","--","--","--"
"Ulster","177,600","11,100","27,100","52","33","35","--","--","--","--"
"Warren","63,900","4,100","10,100","13","19","11","--","--","--","--"
"Washington","61,200","4,000","10,000","11","--","8","--","--","--","--"
"Wayne","89,900","6,700","16,900","33","55","18","--","--","--","--"
"Westchester","967,500","73,200","184,300","197","136","117","--","--","--","--"
"Wyoming","39,900","2,600","6,500","6","10","5","--","--","--","--"
"Yates","24,900","1,800","4,800","5","5","*","--","--","--","--"

"Number of Reported Cases",,,,"4,664","4,746","1,650","--","--","--","--"
"Population Represented","19,453,600","1,327,300","3,572,200","1,327,300","1,323,200","1,327,300","--","--","--","--"
"Rates for Reporting Counties",,,,"3.51","3.59","1.24","--","--","--","--"
"Number of Reporting Counties",,,,"62","61","62","--","--","--","--"

"*Denotes case counts greater than zero and less than five."

"--","Data are either not available or are not reliable for publication."
"Source: Division of Criminal Justice Services"
"Mode: Statistical information pulled from Division of Criminal Justice Services website."
"1. Non-petitioned delinquency figures are cases closed as successfully adjusted.

Because there is only one city-wide probation department for NYC, all the boroughs of NYC (i.e., Bronx, Brooklyn, New York, Queens, and Richmond) are included under NYC Probation Department. These counties are left blank as a result and are all totaled under NYC."
"Source: Office of Court Administration"
"Mode: Automated data file"
"1. Petitioned delinquency figures are cases disposed."
"2. Petitioned status figures are cases disposed."
"AllCounties County "
"Source: YS Office of Court Administration"
"Mode: Information sent to NCJJ"
"1. In 2018, New York enacted legislation that raised the age of criminal responsibility to age 16, effective on 10/1/18, and age 17, effective on 10/1/19. These changes impact the court of jurisdiction for youths facing charges, depending on the type and severity of the alleged offense. For cases qualified to be heard in juvenile (Family) court, many proceedings involving detention or temporary orders of protection are now handled as pre-petition filings in which the youths' cases are removed to the jurisdiction of the family court but first may be successfully adjusted by the local probation department and never formally filed in Family Court. These pre-petition proceedings are not reflected in the counts above."

"Suggested citation:Hockenberry, S., Smith, J., and Kang, W. (2021)."
"Easy Access to State and County Juvenile Court Case Counts, 2019. Online. Available: https://www.ojjdp.gov/ojstatbb/ezaco/."
